p 20 46
e 9 4 0.90 31
e 9 6 0.90 18
e 9 7 0.90 20
e 9 8 0.90 38
e 9 1 0.90 24
e 9 17 0.90 31
e 2 5 0.90 16
e 2 7 0.90 26
e 2 11 0.90 3
e 2 12 0.90 15
e 2 19 0.90 19
e 2 17 0.90 23
e 3 5 0.90 21
e 3 10 0.90 26
e 3 13 0.90 19
e 3 14 0.90 11
e 3 16 0.90 27
e 3 17 0.90 16
e 4 6 0.90 33
e 4 14 0.90 10
e 4 18 0.90 9
e 4 17 0.90 21
e 5 12 0.90 25
e 5 13 0.90 7
e 5 17 0.90 19
e 6 1 0.90 25
e 6 15 0.90 45
e 6 18 0.90 30
e 7 8 0.90 24
e 7 19 0.90 19
e 7 17 0.90 19
e 8 1 0.90 47
e 8 19 0.90 14
e 10 13 0.90 26
e 10 16 0.90 25
e 10 20 0.90 9
e 11 12 0.90 13
e 11 19 0.90 18
e 12 13 0.90 30
e 13 20 0.90 28
e 14 16 0.90 24
e 14 18 0.90 17
e 14 17 0.90 19
e 15 16 0.90 34
e 15 18 0.90 26
e 16 18 0.90 31
