p 20 45
e 1 10 0.90 42
e 1 14 0.90 29
e 1 15 0.90 42
e 1 18 0.90 39
e 2 4 0.90 4
e 2 7 0.90 9
e 2 13 0.90 18
e 2 19 0.90 19
e 3 10 0.90 15
e 3 11 0.90 35
e 3 17 0.90 14
e 3 12 0.90 38
e 4 7 0.90 7
e 4 19 0.90 23
e 5 9 0.90 9
e 5 10 0.90 11
e 5 14 0.90 14
e 5 17 0.90 10
e 5 18 0.90 33
e 6 13 0.90 27
e 6 15 0.90 46
e 6 19 0.90 6
e 7 13 0.90 14
e 7 16 0.90 26
e 8 9 0.90 27
e 8 13 0.90 30
e 8 16 0.90 27
e 8 17 0.90 30
e 8 18 0.90 50
e 8 12 0.90 28
e 9 17 0.90 5
e 9 18 0.90 38
e 10 14 0.90 21
e 10 17 0.90 11
e 11 12 0.90 22
e 20 16 0.90 7
e 20 12 0.90 39
e 13 15 0.90 46
e 13 16 0.90 30
e 13 18 0.90 46
e 13 19 0.90 27
e 14 18 0.90 24
e 15 18 0.90 6
e 16 12 0.90 38
e 17 12 0.90 41
