p 20 46
e 11 2 0.20 21
e 11 5 0.20 19
e 11 8 0.20 9
e 11 10 0.20 27
e 11 15 0.20 24
e 2 4 0.20 19
e 2 8 0.20 15
e 2 1 0.20 59
e 2 13 0.20 58
e 2 15 0.20 29
e 2 18 0.20 21
e 3 7 0.20 10
e 3 9 0.20 20
e 3 14 0.20 6
e 3 17 0.20 9
e 4 7 0.20 18
e 4 13 0.20 53
e 4 18 0.20 22
e 4 19 0.20 41
e 4 12 0.20 15
e 5 10 0.20 10
e 5 15 0.20 26
e 5 16 0.20 9
e 6 13 0.20 15
e 6 19 0.20 23
e 7 9 0.20 13
e 7 17 0.20 13
e 7 18 0.20 17
e 7 12 0.20 9
e 8 10 0.20 35
e 8 1 0.20 56
e 9 20 0.20 36
e 9 14 0.20 23
e 9 19 0.20 44
e 9 12 0.20 8
e 10 16 0.20 5
e 1 13 0.20 28
e 20 14 0.20 27
e 13 19 0.20 36
e 14 15 0.20 38
e 14 17 0.20 14
e 15 16 0.20 33
e 15 17 0.20 27
e 15 18 0.20 23
e 17 18 0.20 6
e 19 12 0.20 42
