p 20 45
e 8 2 0.90 23
e 8 3 0.90 48
e 8 10 0.90 28
e 8 13 0.90 47
e 8 14 0.90 6
e 8 16 0.90 3
e 2 4 0.90 10
e 2 10 0.90 6
e 2 14 0.90 20
e 3 5 0.90 39
e 3 7 0.90 23
e 3 9 0.90 15
e 3 10 0.90 37
e 3 13 0.90 17
e 3 17 0.90 26
e 3 18 0.90 20
e 4 10 0.90 13
e 4 11 0.90 20
e 4 14 0.90 24
e 5 10 0.90 22
e 5 11 0.90 25
e 5 12 0.90 35
e 5 17 0.90 29
e 5 20 0.90 31
e 6 9 0.90 16
e 6 13 0.90 20
e 6 15 0.90 4
e 6 19 0.90 9
e 7 17 0.90 27
e 7 18 0.90 14
e 7 19 0.90 13
e 1 14 0.90 24
e 1 16 0.90 18
e 9 13 0.90 5
e 9 15 0.90 14
e 9 18 0.90 14
e 10 11 0.90 26
e 11 12 0.90 34
e 12 20 0.90 13
e 13 16 0.90 46
e 14 16 0.90 9
e 15 18 0.90 4
e 15 19 0.90 7
e 17 20 0.90 45
e 18 19 0.90 6
