p 20 45
e 8 2 0.20 23
e 8 3 0.20 48
e 8 10 0.20 28
e 8 13 0.20 47
e 8 14 0.20 6
e 8 16 0.20 3
e 2 4 0.20 10
e 2 10 0.20 6
e 2 14 0.20 20
e 3 5 0.20 39
e 3 7 0.20 23
e 3 9 0.20 15
e 3 10 0.20 37
e 3 13 0.20 17
e 3 17 0.20 26
e 3 18 0.20 20
e 4 10 0.20 13
e 4 11 0.20 20
e 4 14 0.20 24
e 5 10 0.20 22
e 5 11 0.20 25
e 5 12 0.20 35
e 5 17 0.20 29
e 5 20 0.20 31
e 6 9 0.20 16
e 6 13 0.20 20
e 6 15 0.20 4
e 6 19 0.20 9
e 7 17 0.20 27
e 7 18 0.20 14
e 7 19 0.20 13
e 1 14 0.20 24
e 1 16 0.20 18
e 9 13 0.20 5
e 9 15 0.20 14
e 9 18 0.20 14
e 10 11 0.20 26
e 11 12 0.20 34
e 12 20 0.20 13
e 13 16 0.20 46
e 14 16 0.20 9
e 15 18 0.20 4
e 15 19 0.20 7
e 17 20 0.20 45
e 18 19 0.20 6
