p 50 94
e 1 25 0.400000 139
e 2 4 0.400000 81
e 2 5 0.400000 230
e 2 3 0.400000 200
e 2 25 0.400000 332
e 2 32 0.400000 189
e 3 12 0.400000 125
e 3 43 0.400000 146
e 3 24 0.400000 200
e 3 33 0.400000 194
e 4 9 0.400000 278
e 4 20 0.400000 348
e 4 21 0.400000 433
e 5 34 0.400000 122
e 5 25 0.400000 220
e 6 16 0.400000 125
e 7 43 0.400000 130
e 7 41 0.400000 61
e 8 31 0.400000 188
e 8 18 0.400000 283
e 8 11 0.400000 264
e 8 50 0.400000 141
e 8 14 0.400000 175
e 9 20 0.400000 85
e 10 19 0.400000 128
e 10 15 0.400000 142
e 10 22 0.400000 36
e 10 16 0.400000 139
e 11 42 0.400000 328
e 11 31 0.400000 243
e 12 42 0.400000 139
e 12 40 0.400000 161
e 12 32 0.400000 100
e 13 17 0.400000 162
e 13 31 0.400000 20
e 14 50 0.400000 180
e 14 39 0.400000 90
e 15 27 0.400000 139
e 15 22 0.400000 136
e 15 23 0.400000 61
e 16 27 0.400000 182
e 17 41 0.400000 95
e 17 31 0.400000 170
e 17 47 0.400000 149
e 17 40 0.400000 42
e 18 30 0.400000 41
e 18 37 0.400000 80
e 18 50 0.400000 408
e 19 50 0.400000 490
e 19 22 0.400000 136
e 19 46 0.400000 215
e 20 37 0.400000 302
e 20 21 0.400000 110
e 21 37 0.400000 247
e 22 46 0.400000 282
e 22 23 0.400000 172
e 22 35 0.400000 228
e 22 28 0.400000 305
e 23 36 0.400000 149
e 24 26 0.400000 148
e 24 33 0.400000 41
e 25 34 0.400000 191
e 26 33 0.400000 143
e 27 36 0.400000 85
e 27 38 0.400000 250
e 28 35 0.400000 188
e 28 44 0.400000 28
e 28 46 0.400000 150
e 28 47 0.400000 126
e 29 35 0.400000 126
e 29 36 0.400000 303
e 29 48 0.400000 219
e 29 33 0.400000 232
e 30 42 0.400000 327
e 31 42 0.400000 214
e 31 39 0.400000 150
e 33 43 0.400000 180
e 33 48 0.400000 153
e 34 49 0.400000 194
e 35 47 0.400000 214
e 36 48 0.400000 236
e 36 38 0.400000 171
e 38 48 0.400000 161
e 38 49 0.400000 82
e 39 44 0.400000 124
e 39 46 0.400000 172
e 40 41 0.400000 85
e 40 43 0.400000 153
e 43 45 0.400000 139
e 44 47 0.400000 141
e 44 46 0.400000 132
e 45 47 0.400000 128
e 46 50 0.400000 304
e 48 49 0.400000 152
